{
    "index": {
        "_name": "Esa Mäkitalo",
        "code": {
            "_name": "Code",
            "esp32-game": {"_name": "ESP32-Game"},
            "deflektor": {"_name": "Deflektor"},
            "flugzeug": {"_name": "Flugzeug"},
            "lvl001": {"_name": "lvl001.net"},
            "ninjameister": {"_name": "Ninjameister"},
            "platformer": {"_name": "Platformer"},
            "puuradio": {"_name": "Puuradio"},
            "rinneradio": {"_name": "Tapani Rinne"},
            "spaceisthehead": {"_name": "Spacceisthehead"},
            "tinycms": {"_name": "TinyCMS"},
            "totris": {"_name": "Totris"}
        },
        "visual": {
            "_name": "Visual",
            "kiki_pau": {
                "_name": "Kiki Pau",
                "hiisi": {"_name": "Hiisi"},
                "pines": {"_name": "Pines"}
            },
            "oneshot": {"_name": "Oneshot"},
            "siinai": {"_name": "Siinai"},
            "hoodrip": {"_name": "Hoodrip"},
            "vjsoft": {"_name": "VJSoft"}
        },
        "info": {"_name": "Info"}
    }
}
